<svg xmlns="http://www.w3.org/2000/svg" viewBox="0 0 25 25" height="25" width="25"><title>restaurant.svg</title><rect fill="none" x="0" y="0" width="25" height="25"></rect><rect x="3" y="3" rx="6" ry="6" width="19" height="19" stroke="#ed7c26" style="stroke-linejoin:round;stroke-miterlimit:4;" fill="#ed7c26" stroke-width="2"></rect><rect x="3" y="3" width="19" height="19" rx="6" ry="6" fill="#ed7c26"></rect><path fill="#ffffff" transform="translate(5 5)" d="M3.5,0l-1,5.5c-0.1464,0.805,1.7815,1.181,1.75,2L4,14c-0.0384,0.9993,1,1,1,1s1.0384-0.0007,1-1L5.75,7.5
	c-0.0314-0.8176,1.7334-1.1808,1.75-2L6.5,0H6l0.25,4L5.5,4.5L5.25,0h-0.5L4.5,4.5L3.75,4L4,0H3.5z M12,0
	c-0.7364,0-1.9642,0.6549-2.4551,1.6367C9.1358,2.3731,9,4.0182,9,5v2.5c0,0.8182,1.0909,1,1.5,1L10,14c-0.0905,0.9959,1,1,1,1
	s1,0,1-1V0z"></path></svg>